<svg width="400" height="300" xmlns="http://www.w3.org/2000/svg" xml:space="preserve" version="1.1">
 <title id="title617">Addition Tree by T Shaw, modified from diagram by Theresa Migler-VonDollen hosted at Wikipedia, CC BY-SA 4.0</title>

 <!---
addtree.svg   diagram of tree for an addition operation in c-in-one-week
Copyright (c) 2021  T Shaw
Derived from a diagram by Theresa Migler-VonDollen hosted at Wikipedia
This work is licensed under a CC SA 4.0 license.
For license terms see:
https://creativecommons.org/licenses/by-sa/4.0/legalcode
-->

 <g>
  <title>Layer 1</title>
  <g id="svg_1">
   <path id="path116" d="m345.5845,197.15751c16.10021,15.23139 16.10021,39.92634 0,55.15773c-16.10021,15.23148 -42.20378,15.23148 -58.30398,0c-16.10021,-15.23139 -16.10021,-39.92634 0,-55.15773c16.10021,-15.23145 42.20378,-15.23145 58.30398,0" fill-rule="nonzero" fill="#048d9f"/>
   <g transform="matrix(2.96352, 0, 0, 2.96352, -650.323, -242.112)" id="g118">
    <path id="path120" d="m336.39322,148.2258c5.4328,5.1396 5.4328,13.4726 0,18.6122c-5.4328,5.1396 -14.2411,5.1396 -19.6739,0c-5.4328,-5.1396 -5.4328,-13.4726 0,-18.6122c5.4328,-5.1397 14.2411,-5.1397 19.6739,0" stroke-miterlimit="10" stroke-linejoin="round" stroke-linecap="round" stroke="#000000" fill="none"/>
   </g>
   <path id="path122" d="m120.7088,197.15751c16.1005,15.23139 16.1005,39.92634 0,55.15773c-16.10021,15.23148 -42.20372,15.23148 -58.30392,0c-16.1003,-15.23139 -16.1003,-39.92634 0,-55.15773c16.10021,-15.23145 42.20372,-15.23145 58.30392,0" fill-rule="nonzero" fill="#048d9f"/>
   <g transform="matrix(2.96352, 0, 0, 2.96352, -650.323, -242.112)" id="g124">
    <path id="path126" d="m260.51192,148.2258c5.4329,5.1396 5.4329,13.4726 0,18.6122c-5.4328,5.1396 -14.2411,5.1396 -19.6739,0c-5.4328,-5.1396 -5.4328,-13.4726 0,-18.6122c5.4328,-5.1397 14.2411,-5.1397 19.6739,0" stroke-miterlimit="10" stroke-linejoin="round" stroke-linecap="round" stroke="#000000" fill="none"/>
   </g>
   <path id="path128" d="m233.1468,48.23909c16.10021,15.23139 16.10021,39.92634 0,55.15773c-16.10021,15.23145 -42.20378,15.23145 -58.30398,0c-16.1005,-15.23139 -16.1005,-39.92634 0,-55.15773c16.10021,-15.23148 42.20378,-15.23148 58.30398,0" fill-rule="nonzero" fill="#048d9f"/>
   <g transform="matrix(2.96352, 0, 0, 2.96352, -650.323, -242.112)" id="g130">
    <path id="path132" d="m298.45262,97.9752c5.4328,5.1396 5.4328,13.4726 0,18.6123c-5.4328,5.1396 -14.2411,5.1396 -19.6739,0c-5.4329,-5.1397 -5.4329,-13.4727 0,-18.6123c5.4328,-5.1396 14.2411,-5.1396 19.6739,0" stroke-miterlimit="10" stroke-linejoin="round" stroke-linecap="round" stroke="#000000" fill="none"/>
   </g>
   <g transform="matrix(2.96352, 0, 0, 2.96352, -650.323, -242.112)" id="g134">
    <path id="path136" d="m280.19098,117.9924l-21.7662,28.8284" stroke-miterlimit="10" stroke-linejoin="round" stroke-linecap="round" stroke-width="2" stroke="#005493" fill="none"/>
   </g>
   <g transform="matrix(2.96352, 0, 0, 2.96352, -650.323, -242.112)" id="g138">
    <path id="path140" d="m296.36538,117.9924l21.7663,28.8284" stroke-miterlimit="10" stroke-linejoin="round" stroke-linecap="round" stroke-width="2" stroke="#005493" fill="none"/>
   </g>
   <text fill="#ffffff" stroke="#000" stroke-width="0" x="184" y="93" id="svg_5" font-size="48" font-family="Noto Sans JP" text-anchor="start" xml:space="preserve">+</text>
   <text fill="#ffffff" stroke="#000" stroke-width="0" x="77" y="243" id="svg_7" font-size="48" font-family="Noto Sans JP" text-anchor="start" xml:space="preserve">5</text>
   <text fill="#ffffff" stroke="#000" stroke-width="0" x="302" y="244" id="svg_8" font-size="48" font-family="Noto Sans JP" text-anchor="start" xml:space="preserve">3</text>
  </g>
 </g>
</svg>
